<?xml version="1.0" encoding="utf-8"?>
<!-- Generator: Adobe Illustrator 21.1.0, SVG Export Plug-In . SVG Version: 6.00 Build 0)  -->
<svg version="1.1" id="圖層_1" xmlns="http://www.w3.org/2000/svg" xmlns:xlink="http://www.w3.org/1999/xlink" x="0px" y="0px"
	 viewBox="0 0 258.3 201" style="enable-background:new 0 0 258.3 201;" xml:space="preserve">
<style type="text/css">
	.st0{fill:#FFFFFF;}
</style>
<path class="st0" d="M117.3,73.5c-8.2-4.1-17.8-4.5-26.1-1.6c17.2,0,28.7,8.3,34.5,20.4c3.5,7.2-2.1,15.4-9.5,15.4
	c7.4,0,13,8.1,9.5,15.4c-5.9,12.4-18.6,20.5-32.4,20.5c-0.2,0-38.1-3.5-38.1-3.5l-26.8,13.5c-3.8,1.9-8,0.2-9.6-3.1L0.8,114.5
	c-1.7-3.5-0.4-7.6,2.8-9.5L27,91.6l16.6-29.9c2.6-23.1,14-44.3,32.2-59.2c4.6-3.8,11.4-3.1,15.1,1.5c3.8,4.6,3.1,11.3-1.5,15.1
	c-5,4.3-9.5,9.1-13.1,14.4c8.7-5.9,18.8-10,29.9-11.3c5.9-0.8,11.3,3.4,12,9.3c0.8,5.9-3.4,11.3-9.3,12c-6.5,0.8-12.6,3-17.8,6.2
	c10.5-2.3,23.7-1.3,35.5,4.5c5.4,2.7,7.6,9.1,4.9,14.5C129,73.8,122.5,76.1,117.3,73.5L117.3,73.5z M106.3,101.5
	c-2.5-5-7.4-8.2-13-8.2c-7.9,0-14.3,6.4-14.4,14.3c0,0,0,0.1,0,0.1c0,8.6,7.2,14.4,14.4,14.4c5.6,0,10.5-3.1,13-8.2
	c1.8-3.8,5.5-6.1,9.4-6.2C111.8,107.6,108.1,105.3,106.3,101.5z M257.6,86.5c1.7,3.5,0.4,7.6-2.8,9.5l-23.4,13.3l-16.6,29.9
	c-2.6,23.1-14,44.3-32.2,59.2c-4.4,3.7-11.2,3.3-15.1-1.5c-3.8-4.6-3.1-11.3,1.5-15.1c5-4.3,9.5-9.1,13.1-14.4
	c-8.7,5.9-18.8,10-29.9,11.3c-4,1-11.1-2.3-12-9.3c-0.8-5.9,3.4-11.3,9.3-12c6.5-0.8,12.6-3,17.8-6.2c-10.5,2.3-23.7,1.3-35.5-4.5
	c-5.4-2.7-7.6-9.1-4.9-14.5c2.6-5.3,9.1-7.5,14.4-4.9c8.2,4.1,17.8,4.5,26.1,1.6c-17.2,0-28.7-8.3-34.5-20.4
	c-3.5-7.2,2.1-15.4,9.5-15.4c-7.4,0-13-8.1-9.5-15.4c5.7-11.9,17.8-20.5,33.1-20.5l37.5,3.5L230,47.5c3.8-1.9,8-0.1,9.6,3.1
	L257.6,86.5L257.6,86.5z M165,79c-5.6,0-10.5,3.1-13,8.2c-1.8,3.8-5.5,6.1-9.4,6.2c3.9,0.1,7.6,2.4,9.4,6.2c2.5,5,7.4,8.2,13,8.2
	c7.9,0,14.3-6.4,14.4-14.3c0,0,0-0.1,0-0.1C179.4,84.7,172.2,79,165,79L165,79z"/>
</svg>
